PCBNEW-LibModule-V1  2023-02-13 18:27:30
# encoding utf-8
Units mm
$INDEX
69802132LF
$EndINDEX
$MODULE 69802132LF
Po 0 0 0 15 63ea8112 00000000 ~~
Li 69802132LF
Cd 69802-132LF-2
Kw Connector
Sc 0
At STD
AR 
Op 0 0 0
T0 0.000 -0.37 1.27 1.27 0 0.254 N V 21 N "J**"
T1 0.000 -0.37 1.27 1.27 0 0.254 N I 21 N "69802132LF"
DS -8.89 -10.16 8.89 -10.16 0.2 24
DS 8.89 -10.16 8.89 10.16 0.2 24
DS 8.89 10.16 -8.89 10.16 0.2 24
DS -8.89 10.16 -8.89 -10.16 0.2 24
DS -8.89 -10.16 8.89 -10.16 0.1 21
DS 8.89 -10.16 8.89 10.16 0.1 21
DS 8.89 10.16 -8.89 10.16 0.1 21
DS -8.89 10.16 -8.89 -10.16 0.1 21
DS -9.89 -11.9 9.89 -11.9 0.1 24
DS 9.89 -11.9 9.89 11.16 0.1 24
DS 9.89 11.16 -9.89 11.16 0.1 24
DS -9.89 11.16 -9.89 -11.9 0.1 24
DS 0 -10.7 0 -10.7 0.2 21
DS 0 -10.9 0 -10.9 0.2 21
DA 5.2735593669695E-16 -10.8 0.000 -10.7 -1800 0.2 21
DA 5.2735593669695E-16 -10.8 0.000 -10.9 -1800 0.2 21
$PAD
Po 0.000 -6.78
Sh "1" R 0.760 1.910 0 0 0
At SMD N 00888000
Ne 0 ""
$EndPAD
$PAD
Po -1.270 -6.78
Sh "2" R 0.760 1.910 0 0 0
At SMD N 00888000
Ne 0 ""
$EndPAD
$PAD
Po -2.540 -6.78
Sh "3" R 0.760 1.910 0 0 0
At SMD N 00888000
Ne 0 ""
$EndPAD
$PAD
Po -3.810 -6.78
Sh "4" R 0.760 1.910 0 0 0
At SMD N 00888000
Ne 0 ""
$EndPAD
$PAD
Po -5.510 -5.08
Sh "5" R 0.760 1.910 0 0 900
At SMD N 00888000
Ne 0 ""
$EndPAD
$PAD
Po -5.510 -3.81
Sh "6" R 0.760 1.910 0 0 900
At SMD N 00888000
Ne 0 ""
$EndPAD
$PAD
Po -5.510 -2.54
Sh "7" R 0.760 1.910 0 0 900
At SMD N 00888000
Ne 0 ""
$EndPAD
$PAD
Po -5.510 -1.27
Sh "8" R 0.760 1.910 0 0 900
At SMD N 00888000
Ne 0 ""
$EndPAD
$PAD
Po -5.510 -0
Sh "9" R 0.760 1.910 0 0 900
At SMD N 00888000
Ne 0 ""
$EndPAD
$PAD
Po -5.510 1.27
Sh "10" R 0.760 1.910 0 0 900
At SMD N 00888000
Ne 0 ""
$EndPAD
$PAD
Po -5.510 2.54
Sh "11" R 0.760 1.910 0 0 900
At SMD N 00888000
Ne 0 ""
$EndPAD
$PAD
Po -5.510 3.81
Sh "12" R 0.760 1.910 0 0 900
At SMD N 00888000
Ne 0 ""
$EndPAD
$PAD
Po -5.510 5.08
Sh "13" R 0.760 1.910 0 0 900
At SMD N 00888000
Ne 0 ""
$EndPAD
$PAD
Po -3.810 6.78
Sh "14" R 0.760 1.910 0 0 0
At SMD N 00888000
Ne 0 ""
$EndPAD
$PAD
Po -2.540 6.78
Sh "15" R 0.760 1.910 0 0 0
At SMD N 00888000
Ne 0 ""
$EndPAD
$PAD
Po -1.270 6.78
Sh "16" R 0.760 1.910 0 0 0
At SMD N 00888000
Ne 0 ""
$EndPAD
$PAD
Po 0.000 6.78
Sh "17" R 0.760 1.910 0 0 0
At SMD N 00888000
Ne 0 ""
$EndPAD
$PAD
Po 1.270 6.78
Sh "18" R 0.760 1.910 0 0 0
At SMD N 00888000
Ne 0 ""
$EndPAD
$PAD
Po 2.540 6.78
Sh "19" R 0.760 1.910 0 0 0
At SMD N 00888000
Ne 0 ""
$EndPAD
$PAD
Po 3.810 6.78
Sh "20" R 0.760 1.910 0 0 0
At SMD N 00888000
Ne 0 ""
$EndPAD
$PAD
Po 5.510 5.08
Sh "21" R 0.760 1.910 0 0 900
At SMD N 00888000
Ne 0 ""
$EndPAD
$PAD
Po 5.510 3.81
Sh "22" R 0.760 1.910 0 0 900
At SMD N 00888000
Ne 0 ""
$EndPAD
$PAD
Po 5.510 2.54
Sh "23" R 0.760 1.910 0 0 900
At SMD N 00888000
Ne 0 ""
$EndPAD
$PAD
Po 5.510 1.27
Sh "24" R 0.760 1.910 0 0 900
At SMD N 00888000
Ne 0 ""
$EndPAD
$PAD
Po 5.510 -0
Sh "25" R 0.760 1.910 0 0 900
At SMD N 00888000
Ne 0 ""
$EndPAD
$PAD
Po 5.510 -1.27
Sh "26" R 0.760 1.910 0 0 900
At SMD N 00888000
Ne 0 ""
$EndPAD
$PAD
Po 5.510 -2.54
Sh "27" R 0.760 1.910 0 0 900
At SMD N 00888000
Ne 0 ""
$EndPAD
$PAD
Po 5.510 -3.81
Sh "28" R 0.760 1.910 0 0 900
At SMD N 00888000
Ne 0 ""
$EndPAD
$PAD
Po 5.510 -5.08
Sh "29" R 0.760 1.910 0 0 900
At SMD N 00888000
Ne 0 ""
$EndPAD
$PAD
Po 3.810 -6.78
Sh "30" R 0.760 1.910 0 0 0
At SMD N 00888000
Ne 0 ""
$EndPAD
$PAD
Po 2.540 -6.78
Sh "31" R 0.760 1.910 0 0 0
At SMD N 00888000
Ne 0 ""
$EndPAD
$PAD
Po 1.270 -6.78
Sh "32" R 0.760 1.910 0 0 0
At SMD N 00888000
Ne 0 ""
$EndPAD
$PAD
Po 7.620 -8.89
Sh "MH1" C 0.860 0.860 0 0 900
Dr 1.72 0 0
At STD N 00E0FFFF
Ne 0 ""
$EndPAD
$PAD
Po 7.620 8.89
Sh "MH2" C 0.860 0.860 0 0 900
Dr 1.72 0 0
At STD N 00E0FFFF
Ne 0 ""
$EndPAD
$EndMODULE 69802132LF
$EndLIBRARY
