<mxfile host="Electron" modified="2023-05-10T14:34:02.059Z" agent="Mozilla/5.0 (X11; Linux x86_64) AppleWebKit/537.36 (KHTML, like Gecko) draw.io/21.2.1 Chrome/112.0.5615.87 Electron/24.1.2 Safari/537.36" etag="45CzKG-jAseOabmC-avB" version="21.2.1" type="device">
  <diagram name="Page-1" id="gnSPGllToaoC8dh8Mw1M">
    <mxGraphModel dx="1586" dy="799" grid="1" gridSize="10" guides="1" tooltips="1" connect="1" arrows="1" fold="1" page="1" pageScale="1" pageWidth="1169" pageHeight="827" math="0" shadow="0">
      <root>
        <mxCell id="0" />
        <mxCell id="1" parent="0" />
        <mxCell id="bO0XaMsbmIwysVVsktzf-94" value="" style="rounded=0;whiteSpace=wrap;html=1;fillColor=none;movable=0;resizable=0;rotatable=0;deletable=0;editable=0;locked=1;connectable=0;" parent="1" vertex="1">
          <mxGeometry x="10" y="9" width="1150" height="810" as="geometry" />
        </mxCell>
        <mxCell id="bO0XaMsbmIwysVVsktzf-10" style="edgeStyle=orthogonalEdgeStyle;rounded=0;orthogonalLoop=1;jettySize=auto;html=1;exitX=0.75;exitY=1;exitDx=0;exitDy=0;entryX=0.5;entryY=0;entryDx=0;entryDy=0;" parent="1" source="bO0XaMsbmIwysVVsktzf-3" target="bO0XaMsbmIwysVVsktzf-8" edge="1">
          <mxGeometry relative="1" as="geometry" />
        </mxCell>
        <mxCell id="bO0XaMsbmIwysVVsktzf-15" style="edgeStyle=orthogonalEdgeStyle;rounded=0;orthogonalLoop=1;jettySize=auto;html=1;exitX=0.75;exitY=1;exitDx=0;exitDy=0;entryX=0.5;entryY=1;entryDx=0;entryDy=0;" parent="1" source="bO0XaMsbmIwysVVsktzf-3" target="bO0XaMsbmIwysVVsktzf-13" edge="1">
          <mxGeometry relative="1" as="geometry">
            <Array as="points">
              <mxPoint x="535" y="480" />
              <mxPoint x="835" y="480" />
            </Array>
          </mxGeometry>
        </mxCell>
        <mxCell id="bO0XaMsbmIwysVVsktzf-17" style="edgeStyle=orthogonalEdgeStyle;rounded=0;orthogonalLoop=1;jettySize=auto;html=1;exitX=0.75;exitY=1;exitDx=0;exitDy=0;" parent="1" source="bO0XaMsbmIwysVVsktzf-3" target="bO0XaMsbmIwysVVsktzf-16" edge="1">
          <mxGeometry relative="1" as="geometry" />
        </mxCell>
        <mxCell id="bO0XaMsbmIwysVVsktzf-23" style="edgeStyle=orthogonalEdgeStyle;rounded=0;orthogonalLoop=1;jettySize=auto;html=1;exitX=0.75;exitY=1;exitDx=0;exitDy=0;entryX=0.25;entryY=0;entryDx=0;entryDy=0;" parent="1" source="bO0XaMsbmIwysVVsktzf-3" target="bO0XaMsbmIwysVVsktzf-22" edge="1">
          <mxGeometry relative="1" as="geometry" />
        </mxCell>
        <mxCell id="bO0XaMsbmIwysVVsktzf-25" style="edgeStyle=orthogonalEdgeStyle;rounded=0;orthogonalLoop=1;jettySize=auto;html=1;exitX=0.75;exitY=0;exitDx=0;exitDy=0;entryX=0.5;entryY=1;entryDx=0;entryDy=0;" parent="1" source="bO0XaMsbmIwysVVsktzf-3" target="bO0XaMsbmIwysVVsktzf-24" edge="1">
          <mxGeometry relative="1" as="geometry" />
        </mxCell>
        <mxCell id="bO0XaMsbmIwysVVsktzf-41" value="UART0" style="edgeLabel;html=1;align=center;verticalAlign=middle;resizable=0;points=[];" parent="bO0XaMsbmIwysVVsktzf-25" vertex="1" connectable="0">
          <mxGeometry x="0.1627" y="-1" relative="1" as="geometry">
            <mxPoint x="24" y="-39" as="offset" />
          </mxGeometry>
        </mxCell>
        <mxCell id="bO0XaMsbmIwysVVsktzf-30" style="edgeStyle=orthogonalEdgeStyle;rounded=0;orthogonalLoop=1;jettySize=auto;html=1;entryX=0.5;entryY=1;entryDx=0;entryDy=0;exitX=0.286;exitY=0.007;exitDx=0;exitDy=0;exitPerimeter=0;" parent="1" source="bO0XaMsbmIwysVVsktzf-3" target="bO0XaMsbmIwysVVsktzf-28" edge="1">
          <mxGeometry relative="1" as="geometry">
            <mxPoint x="460" y="270" as="sourcePoint" />
            <mxPoint x="445" y="80" as="targetPoint" />
          </mxGeometry>
        </mxCell>
        <mxCell id="bO0XaMsbmIwysVVsktzf-42" value="UART1" style="edgeLabel;html=1;align=center;verticalAlign=middle;resizable=0;points=[];" parent="bO0XaMsbmIwysVVsktzf-30" vertex="1" connectable="0">
          <mxGeometry x="-0.3705" y="-3" relative="1" as="geometry">
            <mxPoint x="21" y="-76" as="offset" />
          </mxGeometry>
        </mxCell>
        <mxCell id="bO0XaMsbmIwysVVsktzf-38" style="edgeStyle=orthogonalEdgeStyle;rounded=0;orthogonalLoop=1;jettySize=auto;html=1;exitX=1;exitY=0.25;exitDx=0;exitDy=0;entryX=0.5;entryY=0;entryDx=0;entryDy=0;" parent="1" source="bO0XaMsbmIwysVVsktzf-3" target="bO0XaMsbmIwysVVsktzf-22" edge="1">
          <mxGeometry relative="1" as="geometry">
            <mxPoint x="1155" y="470" as="targetPoint" />
            <Array as="points">
              <mxPoint x="595" y="320" />
              <mxPoint x="595" y="230" />
              <mxPoint x="925" y="230" />
              <mxPoint x="925" y="440" />
              <mxPoint x="1055" y="440" />
            </Array>
          </mxGeometry>
        </mxCell>
        <mxCell id="bO0XaMsbmIwysVVsktzf-39" value="PIT4" style="edgeLabel;html=1;align=center;verticalAlign=middle;resizable=0;points=[];" parent="bO0XaMsbmIwysVVsktzf-38" vertex="1" connectable="0">
          <mxGeometry x="-0.4212" relative="1" as="geometry">
            <mxPoint x="-131" y="-10" as="offset" />
          </mxGeometry>
        </mxCell>
        <mxCell id="bO0XaMsbmIwysVVsktzf-44" style="edgeStyle=orthogonalEdgeStyle;rounded=0;orthogonalLoop=1;jettySize=auto;html=1;exitX=0;exitY=0.25;exitDx=0;exitDy=0;entryX=0.5;entryY=0;entryDx=0;entryDy=0;" parent="1" source="bO0XaMsbmIwysVVsktzf-3" target="Z7VtZEyiPkXnsGc9ULQT-1" edge="1">
          <mxGeometry relative="1" as="geometry" />
        </mxCell>
        <mxCell id="bO0XaMsbmIwysVVsktzf-45" value="SPI" style="edgeLabel;html=1;align=center;verticalAlign=middle;resizable=0;points=[];" parent="bO0XaMsbmIwysVVsktzf-44" vertex="1" connectable="0">
          <mxGeometry x="0.2222" y="3" relative="1" as="geometry">
            <mxPoint x="15" y="-13" as="offset" />
          </mxGeometry>
        </mxCell>
        <mxCell id="bO0XaMsbmIwysVVsktzf-64" style="edgeStyle=orthogonalEdgeStyle;rounded=0;orthogonalLoop=1;jettySize=auto;html=1;exitX=0;exitY=0.5;exitDx=0;exitDy=0;entryX=0.25;entryY=0;entryDx=0;entryDy=0;" parent="1" source="bO0XaMsbmIwysVVsktzf-3" target="bO0XaMsbmIwysVVsktzf-68" edge="1">
          <mxGeometry relative="1" as="geometry">
            <mxPoint x="345" y="360.3333333333335" as="targetPoint" />
            <Array as="points">
              <mxPoint x="300" y="360" />
            </Array>
          </mxGeometry>
        </mxCell>
        <mxCell id="bO0XaMsbmIwysVVsktzf-65" style="edgeStyle=orthogonalEdgeStyle;rounded=0;orthogonalLoop=1;jettySize=auto;html=1;exitX=0;exitY=0.75;exitDx=0;exitDy=0;" parent="1" source="bO0XaMsbmIwysVVsktzf-3" target="bO0XaMsbmIwysVVsktzf-75" edge="1">
          <mxGeometry relative="1" as="geometry">
            <mxPoint x="345" y="400.3333333333335" as="targetPoint" />
          </mxGeometry>
        </mxCell>
        <mxCell id="bO0XaMsbmIwysVVsktzf-69" style="edgeStyle=orthogonalEdgeStyle;rounded=0;orthogonalLoop=1;jettySize=auto;html=1;exitX=0.75;exitY=1;exitDx=0;exitDy=0;entryX=0.75;entryY=0;entryDx=0;entryDy=0;" parent="1" source="bO0XaMsbmIwysVVsktzf-3" target="bO0XaMsbmIwysVVsktzf-68" edge="1">
          <mxGeometry relative="1" as="geometry">
            <Array as="points">
              <mxPoint x="535" y="480" />
              <mxPoint x="360" y="480" />
            </Array>
          </mxGeometry>
        </mxCell>
        <mxCell id="bO0XaMsbmIwysVVsktzf-76" style="edgeStyle=orthogonalEdgeStyle;rounded=0;orthogonalLoop=1;jettySize=auto;html=1;exitX=0;exitY=0.5;exitDx=0;exitDy=0;entryX=0.5;entryY=1;entryDx=0;entryDy=0;" parent="1" source="bO0XaMsbmIwysVVsktzf-3" target="bO0XaMsbmIwysVVsktzf-29" edge="1">
          <mxGeometry relative="1" as="geometry" />
        </mxCell>
        <mxCell id="bO0XaMsbmIwysVVsktzf-3" value="eZ80L92" style="whiteSpace=wrap;html=1;aspect=fixed;fillColor=#d5e8d4;strokeColor=#82b366;" parent="1" vertex="1">
          <mxGeometry x="415" y="280" width="160" height="160" as="geometry" />
        </mxCell>
        <mxCell id="bO0XaMsbmIwysVVsktzf-4" value="2MB&amp;nbsp;SRAM" style="rounded=0;whiteSpace=wrap;html=1;fillColor=#d5e8d4;strokeColor=#82b366;" parent="1" vertex="1">
          <mxGeometry x="615" y="280" width="120" height="160" as="geometry" />
        </mxCell>
        <mxCell id="bO0XaMsbmIwysVVsktzf-5" value="" style="endArrow=classic;html=1;rounded=0;exitX=0.75;exitY=1;exitDx=0;exitDy=0;entryX=0.5;entryY=1;entryDx=0;entryDy=0;" parent="1" source="bO0XaMsbmIwysVVsktzf-3" target="bO0XaMsbmIwysVVsktzf-4" edge="1">
          <mxGeometry width="50" height="50" relative="1" as="geometry">
            <mxPoint x="875" y="440" as="sourcePoint" />
            <mxPoint x="925" y="390" as="targetPoint" />
            <Array as="points">
              <mxPoint x="535" y="480" />
              <mxPoint x="675" y="480" />
            </Array>
          </mxGeometry>
        </mxCell>
        <mxCell id="bO0XaMsbmIwysVVsktzf-50" style="edgeStyle=orthogonalEdgeStyle;rounded=0;orthogonalLoop=1;jettySize=auto;html=1;exitX=0.25;exitY=1;exitDx=0;exitDy=0;entryX=0.75;entryY=1;entryDx=0;entryDy=0;" parent="1" source="bO0XaMsbmIwysVVsktzf-6" target="bO0XaMsbmIwysVVsktzf-8" edge="1">
          <mxGeometry relative="1" as="geometry">
            <Array as="points">
              <mxPoint x="645" y="690" />
              <mxPoint x="555" y="690" />
            </Array>
          </mxGeometry>
        </mxCell>
        <mxCell id="bO0XaMsbmIwysVVsktzf-6" value="CF Card Slot&lt;br&gt;(memory Mode)" style="rounded=0;whiteSpace=wrap;html=1;fillColor=#fff2cc;strokeColor=#d6b656;" parent="1" vertex="1">
          <mxGeometry x="615" y="520" width="120" height="60" as="geometry" />
        </mxCell>
        <mxCell id="bO0XaMsbmIwysVVsktzf-7" value="" style="endArrow=classic;html=1;rounded=0;entryX=0.5;entryY=0;entryDx=0;entryDy=0;" parent="1" target="bO0XaMsbmIwysVVsktzf-6" edge="1">
          <mxGeometry width="50" height="50" relative="1" as="geometry">
            <mxPoint x="535" y="440" as="sourcePoint" />
            <mxPoint x="925" y="390" as="targetPoint" />
            <Array as="points">
              <mxPoint x="535" y="480" />
              <mxPoint x="675" y="480" />
            </Array>
          </mxGeometry>
        </mxCell>
        <mxCell id="bO0XaMsbmIwysVVsktzf-12" style="edgeStyle=orthogonalEdgeStyle;rounded=0;orthogonalLoop=1;jettySize=auto;html=1;exitX=0.25;exitY=1;exitDx=0;exitDy=0;entryX=0.5;entryY=0;entryDx=0;entryDy=0;" parent="1" source="bO0XaMsbmIwysVVsktzf-8" target="bO0XaMsbmIwysVVsktzf-11" edge="1">
          <mxGeometry relative="1" as="geometry" />
        </mxCell>
        <mxCell id="bO0XaMsbmIwysVVsktzf-46" style="edgeStyle=orthogonalEdgeStyle;rounded=0;orthogonalLoop=1;jettySize=auto;html=1;exitX=0;exitY=0.25;exitDx=0;exitDy=0;entryX=0.25;entryY=1;entryDx=0;entryDy=0;" parent="1" source="bO0XaMsbmIwysVVsktzf-8" target="bO0XaMsbmIwysVVsktzf-3" edge="1">
          <mxGeometry relative="1" as="geometry" />
        </mxCell>
        <mxCell id="bO0XaMsbmIwysVVsktzf-47" value="NMI" style="edgeLabel;html=1;align=center;verticalAlign=middle;resizable=0;points=[];" parent="bO0XaMsbmIwysVVsktzf-46" vertex="1" connectable="0">
          <mxGeometry x="-0.1476" y="-2" relative="1" as="geometry">
            <mxPoint x="18" as="offset" />
          </mxGeometry>
        </mxCell>
        <mxCell id="bO0XaMsbmIwysVVsktzf-8" value="ADMA" style="whiteSpace=wrap;html=1;aspect=fixed;fillColor=#e1d5e7;strokeColor=#9673a6;" parent="1" vertex="1">
          <mxGeometry x="495" y="520" width="80" height="80" as="geometry" />
        </mxCell>
        <mxCell id="bO0XaMsbmIwysVVsktzf-11" value="Boot&lt;br&gt;SPI" style="rounded=0;whiteSpace=wrap;html=1;fillColor=#e1d5e7;strokeColor=#9673a6;" parent="1" vertex="1">
          <mxGeometry x="495" y="630" width="40" height="40" as="geometry" />
        </mxCell>
        <mxCell id="bO0XaMsbmIwysVVsktzf-13" value="512kB ROM" style="rounded=0;whiteSpace=wrap;html=1;fillColor=#d5e8d4;strokeColor=#82b366;" parent="1" vertex="1">
          <mxGeometry x="775" y="280" width="120" height="160" as="geometry" />
        </mxCell>
        <mxCell id="bO0XaMsbmIwysVVsktzf-19" style="edgeStyle=orthogonalEdgeStyle;rounded=0;orthogonalLoop=1;jettySize=auto;html=1;exitX=0.25;exitY=1;exitDx=0;exitDy=0;entryX=0.75;entryY=0;entryDx=0;entryDy=0;" parent="1" source="bO0XaMsbmIwysVVsktzf-16" target="bO0XaMsbmIwysVVsktzf-18" edge="1">
          <mxGeometry relative="1" as="geometry" />
        </mxCell>
        <mxCell id="bO0XaMsbmIwysVVsktzf-21" style="edgeStyle=orthogonalEdgeStyle;rounded=0;orthogonalLoop=1;jettySize=auto;html=1;exitX=0.75;exitY=1;exitDx=0;exitDy=0;entryX=0.25;entryY=0;entryDx=0;entryDy=0;" parent="1" source="bO0XaMsbmIwysVVsktzf-16" target="bO0XaMsbmIwysVVsktzf-20" edge="1">
          <mxGeometry relative="1" as="geometry" />
        </mxCell>
        <mxCell id="bO0XaMsbmIwysVVsktzf-16" value="UART" style="rounded=0;whiteSpace=wrap;html=1;fillColor=#f8cecc;strokeColor=#b85450;" parent="1" vertex="1">
          <mxGeometry x="775" y="520" width="120" height="60" as="geometry" />
        </mxCell>
        <mxCell id="bO0XaMsbmIwysVVsktzf-18" value="MAX&lt;br&gt;2323" style="whiteSpace=wrap;html=1;aspect=fixed;fillColor=#fff2cc;strokeColor=#d6b656;" parent="1" vertex="1">
          <mxGeometry x="775" y="610" width="40" height="40" as="geometry" />
        </mxCell>
        <mxCell id="bO0XaMsbmIwysVVsktzf-20" value="MAX&lt;br&gt;2323" style="whiteSpace=wrap;html=1;aspect=fixed;fillColor=#fff2cc;strokeColor=#d6b656;" parent="1" vertex="1">
          <mxGeometry x="855" y="610" width="40" height="40" as="geometry" />
        </mxCell>
        <mxCell id="bO0XaMsbmIwysVVsktzf-52" style="edgeStyle=orthogonalEdgeStyle;rounded=0;orthogonalLoop=1;jettySize=auto;html=1;exitX=0.25;exitY=1;exitDx=0;exitDy=0;" parent="1" source="bO0XaMsbmIwysVVsktzf-22" edge="1">
          <mxGeometry relative="1" as="geometry">
            <mxPoint x="555" y="600" as="targetPoint" />
            <Array as="points">
              <mxPoint x="1025" y="690" />
              <mxPoint x="555" y="690" />
            </Array>
          </mxGeometry>
        </mxCell>
        <mxCell id="bO0XaMsbmIwysVVsktzf-56" style="edgeStyle=orthogonalEdgeStyle;rounded=0;orthogonalLoop=1;jettySize=auto;html=1;exitX=0.75;exitY=0;exitDx=0;exitDy=0;" parent="1" source="bO0XaMsbmIwysVVsktzf-22" target="bO0XaMsbmIwysVVsktzf-54" edge="1">
          <mxGeometry relative="1" as="geometry" />
        </mxCell>
        <mxCell id="bO0XaMsbmIwysVVsktzf-58" style="edgeStyle=orthogonalEdgeStyle;rounded=0;orthogonalLoop=1;jettySize=auto;html=1;exitX=0.75;exitY=0;exitDx=0;exitDy=0;entryX=0.5;entryY=1;entryDx=0;entryDy=0;" parent="1" source="bO0XaMsbmIwysVVsktzf-22" target="bO0XaMsbmIwysVVsktzf-55" edge="1">
          <mxGeometry relative="1" as="geometry">
            <Array as="points">
              <mxPoint x="1085" y="390" />
              <mxPoint x="985" y="390" />
            </Array>
          </mxGeometry>
        </mxCell>
        <mxCell id="bO0XaMsbmIwysVVsktzf-59" value="I2S" style="edgeLabel;html=1;align=center;verticalAlign=middle;resizable=0;points=[];" parent="bO0XaMsbmIwysVVsktzf-58" vertex="1" connectable="0">
          <mxGeometry x="-0.3359" y="2" relative="1" as="geometry">
            <mxPoint x="12" y="7" as="offset" />
          </mxGeometry>
        </mxCell>
        <mxCell id="bO0XaMsbmIwysVVsktzf-61" style="edgeStyle=orthogonalEdgeStyle;rounded=0;orthogonalLoop=1;jettySize=auto;html=1;exitX=0.75;exitY=1;exitDx=0;exitDy=0;startArrow=classic;startFill=1;dashed=1;entryX=0.5;entryY=0;entryDx=0;entryDy=0;" parent="1" source="bO0XaMsbmIwysVVsktzf-22" target="bO0XaMsbmIwysVVsktzf-62" edge="1">
          <mxGeometry relative="1" as="geometry">
            <mxPoint x="1085" y="750" as="targetPoint" />
          </mxGeometry>
        </mxCell>
        <mxCell id="bO0XaMsbmIwysVVsktzf-22" value="Sound Board Connector" style="rounded=0;whiteSpace=wrap;html=1;fillColor=#f5f5f5;strokeColor=#666666;fontColor=#333333;" parent="1" vertex="1">
          <mxGeometry x="995" y="520" width="120" height="60" as="geometry" />
        </mxCell>
        <mxCell id="bO0XaMsbmIwysVVsktzf-26" style="edgeStyle=orthogonalEdgeStyle;rounded=0;orthogonalLoop=1;jettySize=auto;html=1;exitX=0.25;exitY=1;exitDx=0;exitDy=0;entryX=0.674;entryY=0.002;entryDx=0;entryDy=0;entryPerimeter=0;" parent="1" source="bO0XaMsbmIwysVVsktzf-24" target="bO0XaMsbmIwysVVsktzf-3" edge="1">
          <mxGeometry relative="1" as="geometry" />
        </mxCell>
        <mxCell id="bO0XaMsbmIwysVVsktzf-24" value="MIDI0" style="whiteSpace=wrap;html=1;aspect=fixed;fillColor=#fff2cc;strokeColor=#d6b656;" parent="1" vertex="1">
          <mxGeometry x="510" y="90" width="50" height="50" as="geometry" />
        </mxCell>
        <mxCell id="bO0XaMsbmIwysVVsktzf-28" value="MIDI1" style="whiteSpace=wrap;html=1;aspect=fixed;fillColor=#fff2cc;strokeColor=#d6b656;" parent="1" vertex="1">
          <mxGeometry x="435" y="90" width="50" height="50" as="geometry" />
        </mxCell>
        <mxCell id="bO0XaMsbmIwysVVsktzf-32" style="edgeStyle=orthogonalEdgeStyle;rounded=0;orthogonalLoop=1;jettySize=auto;html=1;exitX=0.25;exitY=1;exitDx=0;exitDy=0;" parent="1" source="bO0XaMsbmIwysVVsktzf-28" edge="1">
          <mxGeometry relative="1" as="geometry">
            <mxPoint x="448" y="280" as="targetPoint" />
          </mxGeometry>
        </mxCell>
        <mxCell id="bO0XaMsbmIwysVVsktzf-78" style="edgeStyle=orthogonalEdgeStyle;rounded=0;orthogonalLoop=1;jettySize=auto;html=1;exitX=0.25;exitY=0;exitDx=0;exitDy=0;entryX=0.5;entryY=1;entryDx=0;entryDy=0;" parent="1" source="bO0XaMsbmIwysVVsktzf-29" target="bO0XaMsbmIwysVVsktzf-77" edge="1">
          <mxGeometry relative="1" as="geometry">
            <Array as="points">
              <mxPoint x="325" y="170" />
              <mxPoint x="245" y="170" />
            </Array>
          </mxGeometry>
        </mxCell>
        <mxCell id="bO0XaMsbmIwysVVsktzf-29" value="8051" style="rounded=0;whiteSpace=wrap;html=1;fillColor=#ffe6cc;strokeColor=#d79b00;" parent="1" vertex="1">
          <mxGeometry x="295" y="190" width="120" height="60" as="geometry" />
        </mxCell>
        <mxCell id="bO0XaMsbmIwysVVsktzf-35" style="edgeStyle=orthogonalEdgeStyle;rounded=0;orthogonalLoop=1;jettySize=auto;html=1;entryX=0.75;entryY=0;entryDx=0;entryDy=0;" parent="1" source="bO0XaMsbmIwysVVsktzf-34" target="bO0XaMsbmIwysVVsktzf-29" edge="1">
          <mxGeometry relative="1" as="geometry" />
        </mxCell>
        <mxCell id="bO0XaMsbmIwysVVsktzf-34" value="PS2 KBM" style="whiteSpace=wrap;html=1;aspect=fixed;fillColor=#fff2cc;strokeColor=#d6b656;" parent="1" vertex="1">
          <mxGeometry x="365" y="90" width="50" height="50" as="geometry" />
        </mxCell>
        <mxCell id="bO0XaMsbmIwysVVsktzf-37" style="edgeStyle=orthogonalEdgeStyle;rounded=0;orthogonalLoop=1;jettySize=auto;html=1;exitX=0.5;exitY=1;exitDx=0;exitDy=0;entryX=0.5;entryY=0;entryDx=0;entryDy=0;" parent="1" source="bO0XaMsbmIwysVVsktzf-36" target="bO0XaMsbmIwysVVsktzf-29" edge="1">
          <mxGeometry relative="1" as="geometry">
            <mxPoint x="255" y="170" as="targetPoint" />
            <Array as="points">
              <mxPoint x="320" y="160" />
              <mxPoint x="355" y="160" />
            </Array>
          </mxGeometry>
        </mxCell>
        <mxCell id="bO0XaMsbmIwysVVsktzf-36" value="Buttons" style="whiteSpace=wrap;html=1;aspect=fixed;fillColor=#f8cecc;strokeColor=#b85450;" parent="1" vertex="1">
          <mxGeometry x="295" y="90" width="50" height="50" as="geometry" />
        </mxCell>
        <mxCell id="bO0XaMsbmIwysVVsktzf-40" value="SYSTEM BUS" style="text;html=1;align=center;verticalAlign=middle;resizable=0;points=[];autosize=1;strokeColor=none;fillColor=none;" parent="1" vertex="1">
          <mxGeometry x="535" y="450" width="100" height="30" as="geometry" />
        </mxCell>
        <mxCell id="bO0XaMsbmIwysVVsktzf-43" value="4:1 aspect ratio 5&quot; screen" style="rounded=0;whiteSpace=wrap;html=1;fillColor=#f8cecc;strokeColor=#b85450;" parent="1" vertex="1">
          <mxGeometry x="30" y="490" width="210" height="60" as="geometry" />
        </mxCell>
        <mxCell id="bO0XaMsbmIwysVVsktzf-51" style="edgeStyle=orthogonalEdgeStyle;rounded=0;orthogonalLoop=1;jettySize=auto;html=1;exitX=0.5;exitY=1;exitDx=0;exitDy=0;" parent="1" source="bO0XaMsbmIwysVVsktzf-16" edge="1">
          <mxGeometry relative="1" as="geometry">
            <mxPoint x="555" y="600" as="targetPoint" />
            <Array as="points">
              <mxPoint x="835" y="690" />
              <mxPoint x="555" y="690" />
            </Array>
          </mxGeometry>
        </mxCell>
        <mxCell id="bO0XaMsbmIwysVVsktzf-53" value="DMA REQ" style="edgeLabel;html=1;align=center;verticalAlign=middle;resizable=0;points=[];" parent="bO0XaMsbmIwysVVsktzf-51" vertex="1" connectable="0">
          <mxGeometry x="0.441" y="-3" relative="1" as="geometry">
            <mxPoint x="-14" y="-7" as="offset" />
          </mxGeometry>
        </mxCell>
        <mxCell id="bO0XaMsbmIwysVVsktzf-57" style="edgeStyle=orthogonalEdgeStyle;rounded=0;orthogonalLoop=1;jettySize=auto;html=1;exitX=0.75;exitY=1;exitDx=0;exitDy=0;entryX=0.924;entryY=0.019;entryDx=0;entryDy=0;entryPerimeter=0;" parent="1" source="bO0XaMsbmIwysVVsktzf-54" target="bO0XaMsbmIwysVVsktzf-22" edge="1">
          <mxGeometry relative="1" as="geometry" />
        </mxCell>
        <mxCell id="bO0XaMsbmIwysVVsktzf-73" style="edgeStyle=orthogonalEdgeStyle;rounded=0;orthogonalLoop=1;jettySize=auto;html=1;exitX=0.25;exitY=0;exitDx=0;exitDy=0;entryX=0.25;entryY=1;entryDx=0;entryDy=0;" parent="1" source="bO0XaMsbmIwysVVsktzf-54" target="bO0XaMsbmIwysVVsktzf-72" edge="1">
          <mxGeometry relative="1" as="geometry" />
        </mxCell>
        <mxCell id="bO0XaMsbmIwysVVsktzf-74" style="edgeStyle=orthogonalEdgeStyle;rounded=0;orthogonalLoop=1;jettySize=auto;html=1;exitX=0.75;exitY=0;exitDx=0;exitDy=0;startArrow=classic;startFill=1;endArrow=none;endFill=0;" parent="1" source="bO0XaMsbmIwysVVsktzf-54" edge="1">
          <mxGeometry relative="1" as="geometry">
            <mxPoint x="1155" y="270" as="targetPoint" />
            <Array as="points">
              <mxPoint x="1105" y="270" />
            </Array>
          </mxGeometry>
        </mxCell>
        <mxCell id="bO0XaMsbmIwysVVsktzf-54" value="Codec" style="whiteSpace=wrap;html=1;aspect=fixed;fillColor=#f8cecc;strokeColor=#b85450;" parent="1" vertex="1">
          <mxGeometry x="1045" y="290" width="80" height="80" as="geometry" />
        </mxCell>
        <mxCell id="bO0XaMsbmIwysVVsktzf-55" value="SPIDIF Encoder" style="whiteSpace=wrap;html=1;aspect=fixed;fillColor=#f8cecc;strokeColor=#b85450;" parent="1" vertex="1">
          <mxGeometry x="945" y="290" width="80" height="80" as="geometry" />
        </mxCell>
        <mxCell id="bO0XaMsbmIwysVVsktzf-62" value="Sound Hardware" style="whiteSpace=wrap;html=1;aspect=fixed;fillColor=#f8cecc;strokeColor=#b85450;" parent="1" vertex="1">
          <mxGeometry x="1045" y="620" width="80" height="80" as="geometry" />
        </mxCell>
        <mxCell id="bO0XaMsbmIwysVVsktzf-66" value="I2C" style="text;html=1;align=center;verticalAlign=middle;resizable=0;points=[];autosize=1;strokeColor=none;fillColor=none;" parent="1" vertex="1">
          <mxGeometry x="350" y="330" width="40" height="30" as="geometry" />
        </mxCell>
        <mxCell id="bO0XaMsbmIwysVVsktzf-67" value="GPIO" style="text;html=1;align=center;verticalAlign=middle;resizable=0;points=[];autosize=1;strokeColor=none;fillColor=none;" parent="1" vertex="1">
          <mxGeometry x="370" y="399" width="50" height="30" as="geometry" />
        </mxCell>
        <mxCell id="bO0XaMsbmIwysVVsktzf-70" style="edgeStyle=orthogonalEdgeStyle;rounded=0;orthogonalLoop=1;jettySize=auto;html=1;exitX=0.75;exitY=1;exitDx=0;exitDy=0;" parent="1" source="bO0XaMsbmIwysVVsktzf-68" edge="1">
          <mxGeometry relative="1" as="geometry">
            <mxPoint x="555" y="600.3333333333335" as="targetPoint" />
            <Array as="points">
              <mxPoint x="360" y="690" />
              <mxPoint x="555" y="690" />
            </Array>
          </mxGeometry>
        </mxCell>
        <mxCell id="bO0XaMsbmIwysVVsktzf-71" style="edgeStyle=orthogonalEdgeStyle;rounded=0;orthogonalLoop=1;jettySize=auto;html=1;exitX=1;exitY=0.5;exitDx=0;exitDy=0;" parent="1" source="bO0XaMsbmIwysVVsktzf-68" edge="1">
          <mxGeometry relative="1" as="geometry">
            <mxPoint x="455" y="440" as="targetPoint" />
          </mxGeometry>
        </mxCell>
        <mxCell id="bO0XaMsbmIwysVVsktzf-68" value="Expansion Header" style="rounded=0;whiteSpace=wrap;html=1;fillColor=#d5e8d4;strokeColor=#82b366;" parent="1" vertex="1">
          <mxGeometry x="270" y="510" width="120" height="60" as="geometry" />
        </mxCell>
        <mxCell id="bO0XaMsbmIwysVVsktzf-72" value="Amplifier" style="whiteSpace=wrap;html=1;aspect=fixed;fillColor=#f8cecc;strokeColor=#b85450;" parent="1" vertex="1">
          <mxGeometry x="1045" y="150" width="80" height="80" as="geometry" />
        </mxCell>
        <mxCell id="bO0XaMsbmIwysVVsktzf-75" value="Encoders" style="whiteSpace=wrap;html=1;aspect=fixed;fillColor=#f8cecc;strokeColor=#b85450;" parent="1" vertex="1">
          <mxGeometry x="310" y="370" width="60" height="60" as="geometry" />
        </mxCell>
        <mxCell id="bO0XaMsbmIwysVVsktzf-77" value="LEDs" style="whiteSpace=wrap;html=1;aspect=fixed;fillColor=#f8cecc;strokeColor=#b85450;" parent="1" vertex="1">
          <mxGeometry x="220" y="90" width="50" height="50" as="geometry" />
        </mxCell>
        <mxCell id="bO0XaMsbmIwysVVsktzf-82" style="edgeStyle=orthogonalEdgeStyle;rounded=0;orthogonalLoop=1;jettySize=auto;html=1;entryX=0;entryY=0.5;entryDx=0;entryDy=0;" parent="1" target="bO0XaMsbmIwysVVsktzf-81" edge="1">
          <mxGeometry relative="1" as="geometry">
            <mxPoint x="150" y="730" as="sourcePoint" />
          </mxGeometry>
        </mxCell>
        <mxCell id="bO0XaMsbmIwysVVsktzf-83" style="edgeStyle=orthogonalEdgeStyle;rounded=0;orthogonalLoop=1;jettySize=auto;html=1;exitX=1;exitY=0.5;exitDx=0;exitDy=0;entryX=0;entryY=0.5;entryDx=0;entryDy=0;" parent="1" source="bO0XaMsbmIwysVVsktzf-81" target="bO0XaMsbmIwysVVsktzf-84" edge="1">
          <mxGeometry relative="1" as="geometry">
            <mxPoint x="189.97000000000003" y="770.3333333333335" as="targetPoint" />
            <Array as="points">
              <mxPoint x="230" y="730" />
              <mxPoint x="230" y="780" />
            </Array>
          </mxGeometry>
        </mxCell>
        <mxCell id="bO0XaMsbmIwysVVsktzf-80" value="3x AA Battery" style="whiteSpace=wrap;html=1;aspect=fixed;fillColor=#f8cecc;strokeColor=#b85450;" parent="1" vertex="1">
          <mxGeometry x="30" y="710" width="80" height="80" as="geometry" />
        </mxCell>
        <mxCell id="bO0XaMsbmIwysVVsktzf-87" style="edgeStyle=orthogonalEdgeStyle;rounded=0;orthogonalLoop=1;jettySize=auto;html=1;exitX=1;exitY=0.5;exitDx=0;exitDy=0;entryX=0;entryY=0.5;entryDx=0;entryDy=0;" parent="1" source="bO0XaMsbmIwysVVsktzf-81" target="bO0XaMsbmIwysVVsktzf-86" edge="1">
          <mxGeometry relative="1" as="geometry" />
        </mxCell>
        <mxCell id="bO0XaMsbmIwysVVsktzf-89" style="edgeStyle=orthogonalEdgeStyle;rounded=0;orthogonalLoop=1;jettySize=auto;html=1;exitX=1;exitY=0.5;exitDx=0;exitDy=0;" parent="1" source="bO0XaMsbmIwysVVsktzf-81" edge="1">
          <mxGeometry relative="1" as="geometry">
            <mxPoint x="230" y="700" as="targetPoint" />
            <Array as="points">
              <mxPoint x="230" y="730" />
              <mxPoint x="230" y="700" />
            </Array>
          </mxGeometry>
        </mxCell>
        <mxCell id="Z7VtZEyiPkXnsGc9ULQT-8" style="edgeStyle=orthogonalEdgeStyle;rounded=0;orthogonalLoop=1;jettySize=auto;html=1;exitX=0;exitY=0.5;exitDx=0;exitDy=0;entryX=0.5;entryY=1;entryDx=0;entryDy=0;" edge="1" parent="1" source="bO0XaMsbmIwysVVsktzf-81" target="Z7VtZEyiPkXnsGc9ULQT-7">
          <mxGeometry relative="1" as="geometry">
            <Array as="points">
              <mxPoint x="160" y="730" />
            </Array>
          </mxGeometry>
        </mxCell>
        <mxCell id="bO0XaMsbmIwysVVsktzf-81" value="5V boost" style="whiteSpace=wrap;html=1;aspect=fixed;fillColor=#f8cecc;strokeColor=#b85450;" parent="1" vertex="1">
          <mxGeometry x="170" y="710" width="40" height="40" as="geometry" />
        </mxCell>
        <mxCell id="bO0XaMsbmIwysVVsktzf-90" style="edgeStyle=orthogonalEdgeStyle;rounded=0;orthogonalLoop=1;jettySize=auto;html=1;exitX=1;exitY=0.5;exitDx=0;exitDy=0;" parent="1" source="bO0XaMsbmIwysVVsktzf-84" edge="1">
          <mxGeometry relative="1" as="geometry">
            <mxPoint x="309.97" y="750" as="targetPoint" />
          </mxGeometry>
        </mxCell>
        <mxCell id="bO0XaMsbmIwysVVsktzf-84" value="3V3 Buck" style="whiteSpace=wrap;html=1;aspect=fixed;fillColor=#f8cecc;strokeColor=#b85450;" parent="1" vertex="1">
          <mxGeometry x="249.97000000000003" y="760" width="40" height="40" as="geometry" />
        </mxCell>
        <mxCell id="bO0XaMsbmIwysVVsktzf-88" style="edgeStyle=orthogonalEdgeStyle;rounded=0;orthogonalLoop=1;jettySize=auto;html=1;exitX=1;exitY=0.5;exitDx=0;exitDy=0;" parent="1" source="bO0XaMsbmIwysVVsktzf-86" edge="1">
          <mxGeometry relative="1" as="geometry">
            <mxPoint x="309.97" y="700" as="targetPoint" />
          </mxGeometry>
        </mxCell>
        <mxCell id="bO0XaMsbmIwysVVsktzf-86" value="3V3 Analog LDO" style="whiteSpace=wrap;html=1;aspect=fixed;fillColor=#f8cecc;strokeColor=#b85450;" parent="1" vertex="1">
          <mxGeometry x="249.97000000000003" y="710" width="40" height="40" as="geometry" />
        </mxCell>
        <mxCell id="bO0XaMsbmIwysVVsktzf-91" value="" style="endArrow=none;html=1;rounded=0;exitX=1;exitY=0.25;exitDx=0;exitDy=0;" parent="1" source="bO0XaMsbmIwysVVsktzf-80" edge="1">
          <mxGeometry width="50" height="50" relative="1" as="geometry">
            <mxPoint x="280" y="750" as="sourcePoint" />
            <mxPoint x="130" y="730" as="targetPoint" />
          </mxGeometry>
        </mxCell>
        <mxCell id="bO0XaMsbmIwysVVsktzf-92" value="" style="endArrow=none;html=1;rounded=0;" parent="1" edge="1">
          <mxGeometry width="50" height="50" relative="1" as="geometry">
            <mxPoint x="130" y="730" as="sourcePoint" />
            <mxPoint x="150" y="720" as="targetPoint" />
          </mxGeometry>
        </mxCell>
        <mxCell id="bO0XaMsbmIwysVVsktzf-95" value="&lt;b&gt;&lt;font style=&quot;font-size: 15px;&quot;&gt;SIG 11 Music Computer Block Diagram&lt;/font&gt;&lt;/b&gt;" style="rounded=0;whiteSpace=wrap;html=1;align=left;fontFamily=Courier New;fontStyle=2;movable=0;resizable=0;rotatable=0;deletable=0;editable=0;locked=1;connectable=0;" parent="1" vertex="1">
          <mxGeometry x="840" y="750" width="320" height="30" as="geometry" />
        </mxCell>
        <mxCell id="bO0XaMsbmIwysVVsktzf-96" value="date: 09/05/2023" style="rounded=0;whiteSpace=wrap;html=1;align=left;fontFamily=Courier New;movable=1;resizable=1;rotatable=1;deletable=1;editable=1;locked=0;connectable=1;" parent="1" vertex="1">
          <mxGeometry x="920" y="780" width="160" height="20" as="geometry" />
        </mxCell>
        <mxCell id="bO0XaMsbmIwysVVsktzf-97" value="DrawIO 21.1.2" style="rounded=0;whiteSpace=wrap;html=1;align=left;fontFamily=Courier New;movable=0;resizable=0;rotatable=0;deletable=0;editable=0;locked=1;connectable=0;" parent="1" vertex="1">
          <mxGeometry x="840" y="800" width="240" height="20" as="geometry" />
        </mxCell>
        <mxCell id="bO0XaMsbmIwysVVsktzf-98" value="Rev: 1.1" style="rounded=0;whiteSpace=wrap;html=1;align=left;fontFamily=Courier New;movable=1;resizable=1;rotatable=1;deletable=1;editable=1;locked=0;connectable=1;" parent="1" vertex="1">
          <mxGeometry x="1080" y="780" width="80" height="20" as="geometry" />
        </mxCell>
        <mxCell id="bO0XaMsbmIwysVVsktzf-99" value="Size: A4" style="rounded=0;whiteSpace=wrap;html=1;align=left;fontFamily=Courier New;movable=0;resizable=0;rotatable=0;deletable=0;editable=0;locked=1;connectable=0;" parent="1" vertex="1">
          <mxGeometry x="840" y="780" width="80" height="20" as="geometry" />
        </mxCell>
        <mxCell id="bO0XaMsbmIwysVVsktzf-101" value="id: 1/1" style="rounded=0;whiteSpace=wrap;html=1;align=left;fontFamily=Courier New;movable=0;resizable=0;rotatable=0;deletable=0;editable=0;locked=1;connectable=0;" parent="1" vertex="1">
          <mxGeometry x="1080" y="800" width="80" height="20" as="geometry" />
        </mxCell>
        <mxCell id="bO0XaMsbmIwysVVsktzf-102" value="&lt;br style=&quot;&quot;&gt;&lt;span style=&quot;&quot;&gt;&lt;b&gt;SEGFAULT&lt;/b&gt;&lt;br&gt;&lt;/span&gt;" style="rounded=0;whiteSpace=wrap;html=1;align=left;fontFamily=Courier New;fontStyle=2;movable=0;resizable=0;rotatable=0;deletable=0;editable=0;locked=1;connectable=0;" parent="1" vertex="1">
          <mxGeometry x="840" y="710" width="320" height="40" as="geometry" />
        </mxCell>
        <mxCell id="Z7VtZEyiPkXnsGc9ULQT-5" style="edgeStyle=orthogonalEdgeStyle;rounded=0;orthogonalLoop=1;jettySize=auto;html=1;exitX=0.5;exitY=1;exitDx=0;exitDy=0;entryX=0.809;entryY=0;entryDx=0;entryDy=0;entryPerimeter=0;" edge="1" parent="1" source="Z7VtZEyiPkXnsGc9ULQT-1" target="bO0XaMsbmIwysVVsktzf-43">
          <mxGeometry relative="1" as="geometry" />
        </mxCell>
        <mxCell id="Z7VtZEyiPkXnsGc9ULQT-6" value="24Bit RGB&lt;br&gt;+ Sync" style="edgeLabel;html=1;align=center;verticalAlign=middle;resizable=0;points=[];" vertex="1" connectable="0" parent="Z7VtZEyiPkXnsGc9ULQT-5">
          <mxGeometry x="0.2081" relative="1" as="geometry">
            <mxPoint x="-30" y="-12" as="offset" />
          </mxGeometry>
        </mxCell>
        <mxCell id="Z7VtZEyiPkXnsGc9ULQT-10" style="edgeStyle=orthogonalEdgeStyle;rounded=0;orthogonalLoop=1;jettySize=auto;html=1;exitX=1;exitY=0.75;exitDx=0;exitDy=0;entryX=1;entryY=0.5;entryDx=0;entryDy=0;" edge="1" parent="1" source="Z7VtZEyiPkXnsGc9ULQT-1" target="Z7VtZEyiPkXnsGc9ULQT-7">
          <mxGeometry relative="1" as="geometry">
            <Array as="points">
              <mxPoint x="250" y="400" />
              <mxPoint x="250" y="630" />
            </Array>
          </mxGeometry>
        </mxCell>
        <mxCell id="Z7VtZEyiPkXnsGc9ULQT-11" value="Backlight&lt;br&gt;PWM" style="edgeLabel;html=1;align=center;verticalAlign=middle;resizable=0;points=[];" vertex="1" connectable="0" parent="Z7VtZEyiPkXnsGc9ULQT-10">
          <mxGeometry x="-0.757" y="1" relative="1" as="geometry">
            <mxPoint x="-31" y="183" as="offset" />
          </mxGeometry>
        </mxCell>
        <mxCell id="Z7VtZEyiPkXnsGc9ULQT-13" style="edgeStyle=orthogonalEdgeStyle;rounded=0;orthogonalLoop=1;jettySize=auto;html=1;exitX=0;exitY=0.25;exitDx=0;exitDy=0;entryX=1;entryY=0.5;entryDx=0;entryDy=0;" edge="1" parent="1" source="Z7VtZEyiPkXnsGc9ULQT-1" target="Z7VtZEyiPkXnsGc9ULQT-12">
          <mxGeometry relative="1" as="geometry" />
        </mxCell>
        <mxCell id="Z7VtZEyiPkXnsGc9ULQT-14" value="QSPI&lt;br&gt;/w XIP" style="edgeLabel;html=1;align=center;verticalAlign=middle;resizable=0;points=[];" vertex="1" connectable="0" parent="Z7VtZEyiPkXnsGc9ULQT-13">
          <mxGeometry x="0.0533" y="1" relative="1" as="geometry">
            <mxPoint x="1" y="19" as="offset" />
          </mxGeometry>
        </mxCell>
        <mxCell id="Z7VtZEyiPkXnsGc9ULQT-1" value="BT817/8Q" style="whiteSpace=wrap;html=1;aspect=fixed;fillColor=#f8cecc;strokeColor=#b85450;" vertex="1" parent="1">
          <mxGeometry x="160" y="340" width="80" height="80" as="geometry" />
        </mxCell>
        <mxCell id="Z7VtZEyiPkXnsGc9ULQT-9" style="edgeStyle=orthogonalEdgeStyle;rounded=0;orthogonalLoop=1;jettySize=auto;html=1;exitX=0.5;exitY=0;exitDx=0;exitDy=0;entryX=0.618;entryY=1;entryDx=0;entryDy=0;entryPerimeter=0;" edge="1" parent="1" source="Z7VtZEyiPkXnsGc9ULQT-7" target="bO0XaMsbmIwysVVsktzf-43">
          <mxGeometry relative="1" as="geometry" />
        </mxCell>
        <mxCell id="Z7VtZEyiPkXnsGc9ULQT-7" value="Backlight&lt;br&gt;Driver" style="whiteSpace=wrap;html=1;aspect=fixed;fillColor=#f8cecc;strokeColor=#b85450;" vertex="1" parent="1">
          <mxGeometry x="140" y="610" width="40" height="40" as="geometry" />
        </mxCell>
        <mxCell id="Z7VtZEyiPkXnsGc9ULQT-12" value="NOR FLASH&lt;br&gt;(optional)" style="whiteSpace=wrap;html=1;aspect=fixed;fillColor=#f8cecc;strokeColor=#b85450;dashed=1;dashPattern=1 2;" vertex="1" parent="1">
          <mxGeometry x="80" y="340" width="40" height="40" as="geometry" />
        </mxCell>
      </root>
    </mxGraphModel>
  </diagram>
</mxfile>
